5_3_5_1_5_1_0_1
5_1_5_1_5_1_0_1
5_10_15_20
Hello
5_1
1_5_1
5_h_1





5_7_5_6_1
5_9_5_3_0
5_4_5_7_2_5_1
5_20_5_10_3
5_10_5_7_4_5_1
5_5_5_6_6
5_7_5_9_7_5_1
5_6_8
5_1_5_9_5_1
5_6_5_8_5_1_9
5_1_5_1_2
1__5_6
______
5_1
5_1
5_1
5_9_9_9
5_1
5_1
5_1
5_0_0_0
5_1
5_1
5_1
5_2_2_2
5_1
5_1
5_1
5_3_3_3
5_1
5_1
5_1
5_4_4_4
5_1
5_1
5_1
5_6_6_6
5_1
5_1
5_1
5_7_7_7
5_1
5_1
5_1
5_8_8_8
5_1
5_1
5_1
5_9_9_9
